# Blender v2.78 (sub 0) OBJ File: ''
# www.blender.org
mtllib Key.mtl
o Cylinder
v -1.750117 -0.711733 0.082500
v -1.750117 -0.211733 0.082500
v -1.750117 -0.711733 -0.082500
v -1.750117 -0.211733 -0.082500
v -1.250117 -0.711733 0.082500
v -1.250117 -0.211733 0.082500
v -1.250117 -0.711733 -0.082500
v -1.250117 -0.211733 -0.082500
v -2.500117 -0.711733 0.082500
v -2.500117 -0.211733 0.082500
v -2.500117 -0.711733 -0.082500
v -2.500117 -0.211733 -0.082500
v -2.000117 -0.711733 0.082500
v -2.000117 -0.211733 0.082500
v -2.000117 -0.711733 -0.082500
v -2.000117 -0.211733 -0.082500
v -2.500000 -0.000000 -0.250000
v 1.500000 0.000000 -0.250000
v -2.500000 -0.176777 -0.176777
v 1.500000 -0.176777 -0.176777
v -2.500000 -0.250000 0.000000
v 1.500000 -0.250000 0.000000
v -2.500000 -0.176777 0.176777
v 1.500000 -0.176777 0.176777
v -2.500000 -0.000000 0.250000
v 1.500000 0.000000 0.250000
v -2.500000 0.176777 0.176777
v 1.500000 0.176777 0.176777
v -2.500000 0.250000 -0.000000
v 1.500000 0.250000 -0.000000
v -2.500000 0.176777 -0.176777
v 1.500000 0.176777 -0.176777
v 3.090728 0.000000 0.000000
v 3.039092 -0.000000 0.176777
v 2.914431 -0.000000 0.250000
v 2.789769 -0.000000 0.176777
v 2.738133 -0.000000 0.000000
v 2.789769 0.000000 -0.176777
v 2.914431 0.000000 -0.250000
v 3.039092 0.000000 -0.176777
v 3.023629 0.337331 0.000000
v 2.975923 0.317570 0.176777
v 2.860751 0.269864 0.250000
v 2.745579 0.222159 0.176777
v 2.697874 0.202398 0.000000
v 2.745579 0.222159 -0.176777
v 2.860751 0.269864 -0.250000
v 2.975923 0.317570 -0.176777
v 2.832546 0.623306 0.000000
v 2.796034 0.586793 0.176777
v 2.707885 0.498645 0.250000
v 2.619736 0.410496 0.176777
v 2.583224 0.373983 0.000000
v 2.619736 0.410496 -0.176777
v 2.707885 0.498645 -0.250000
v 2.796034 0.586793 -0.176777
v 2.546571 0.814388 0.000000
v 2.526811 0.766682 0.176777
v 2.479105 0.651510 0.250000
v 2.431400 0.536339 0.176777
v 2.411639 0.488633 0.000000
v 2.431400 0.536339 -0.176777
v 2.479105 0.651510 -0.250000
v 2.526811 0.766682 -0.176777
v 2.209241 0.881487 0.000000
v 2.209241 0.829851 0.176777
v 2.209241 0.705190 0.250000
v 2.209241 0.580529 0.176777
v 2.209241 0.528892 0.000000
v 2.209241 0.580529 -0.176777
v 2.209241 0.705190 -0.250000
v 2.209241 0.829851 -0.176777
v 1.871910 0.814388 0.000000
v 1.891670 0.766682 0.176777
v 1.939376 0.651510 0.250000
v 1.987082 0.536339 0.176777
v 2.006842 0.488633 0.000000
v 1.987082 0.536339 -0.176777
v 1.939376 0.651510 -0.250000
v 1.891670 0.766682 -0.176777
v 1.585935 0.623306 0.000000
v 1.622447 0.586793 0.176777
v 1.710596 0.498644 0.250000
v 1.798745 0.410496 0.176777
v 1.835257 0.373983 0.000000
v 1.798745 0.410496 -0.176777
v 1.710596 0.498644 -0.250000
v 1.622447 0.586793 -0.176777
v 1.394853 0.337331 0.000000
v 1.442558 0.317570 0.176777
v 1.557730 0.269865 0.250000
v 1.672902 0.222159 0.176777
v 1.720608 0.202398 0.000000
v 1.672902 0.222159 -0.176777
v 1.557730 0.269865 -0.250000
v 1.442558 0.317570 -0.176777
v 1.327753 0.000000 0.000000
v 1.379390 0.000000 0.176777
v 1.504051 0.000000 0.250000
v 1.628712 0.000000 0.176777
v 1.680348 0.000000 0.000000
v 1.628712 0.000000 -0.176777
v 1.504051 0.000000 -0.250000
v 1.379390 0.000000 -0.176777
v 1.394852 -0.337330 -0.000000
v 1.442558 -0.317570 0.176777
v 1.557730 -0.269864 0.250000
v 1.672902 -0.222159 0.176777
v 1.720608 -0.202398 -0.000000
v 1.672902 -0.222159 -0.176777
v 1.557730 -0.269864 -0.250000
v 1.442558 -0.317570 -0.176777
v 1.585935 -0.623305 -0.000000
v 1.622447 -0.586793 0.176777
v 1.710596 -0.498644 0.250000
v 1.798745 -0.410496 0.176777
v 1.835257 -0.373983 -0.000000
v 1.798745 -0.410496 -0.176777
v 1.710596 -0.498644 -0.250000
v 1.622447 -0.586793 -0.176777
v 1.871910 -0.814388 -0.000000
v 1.891670 -0.766682 0.176777
v 1.939376 -0.651510 0.250000
v 1.987082 -0.536339 0.176777
v 2.006842 -0.488633 -0.000000
v 1.987082 -0.536339 -0.176777
v 1.939376 -0.651510 -0.250000
v 1.891670 -0.766682 -0.176777
v 2.209241 -0.881487 -0.000000
v 2.209241 -0.829851 0.176777
v 2.209241 -0.705190 0.250000
v 2.209241 -0.580529 0.176777
v 2.209241 -0.528892 -0.000000
v 2.209241 -0.580529 -0.176777
v 2.209241 -0.705190 -0.250000
v 2.209241 -0.829851 -0.176777
v 2.546571 -0.814388 -0.000000
v 2.526811 -0.766682 0.176777
v 2.479105 -0.651510 0.250000
v 2.431400 -0.536339 0.176777
v 2.411639 -0.488633 -0.000000
v 2.431400 -0.536339 -0.176777
v 2.479105 -0.651510 -0.250000
v 2.526811 -0.766682 -0.176777
v 2.832546 -0.623306 -0.000000
v 2.796034 -0.586794 0.176777
v 2.707885 -0.498645 0.250000
v 2.619736 -0.410496 0.176777
v 2.583224 -0.373984 -0.000000
v 2.619736 -0.410496 -0.176777
v 2.707885 -0.498645 -0.250000
v 2.796034 -0.586794 -0.176777
v 3.023629 -0.337331 -0.000000
v 2.975923 -0.317571 0.176777
v 2.860751 -0.269865 0.250000
v 2.745579 -0.222159 0.176777
v 2.697873 -0.202399 -0.000000
v 2.745579 -0.222159 -0.176777
v 2.860751 -0.269865 -0.250000
v 2.975923 -0.317571 -0.176777
vt 0.3027 0.6635
vt 0.4044 0.6915
vt 0.3844 0.7192
vt 0.2935 0.6970
vt 0.4205 0.8085
vt 0.2935 0.8244
vt 0.4789 0.9286
vt 0.4602 0.7892
vt 0.5186 0.9093
vt 0.5579 0.7335
vt 0.5022 0.6357
vt 0.9724 0.0002
vt 0.9724 0.1122
vt 0.9355 0.1122
vt 0.9355 0.0002
vt 0.0279 0.8909
vt 0.0559 0.7892
vt 0.0837 0.8092
vt 0.0615 0.9001
vt 0.1730 0.7731
vt 0.1889 0.9001
vt 0.2931 0.7147
vt 0.1537 0.7335
vt 0.2738 0.6751
vt 0.0979 0.6357
vt 0.0002 0.6915
vt 0.9724 0.1126
vt 0.9724 0.2246
vt 0.9355 0.2246
vt 0.9355 0.1126
vt 0.8922 0.0002
vt 0.8922 0.8959
vt 0.8494 0.8959
vt 0.8494 0.0002
vt 0.8065 0.8959
vt 0.8065 0.0002
vt 0.7637 0.8959
vt 0.7637 0.0002
vt 0.7208 0.8959
vt 0.7208 0.0002
vt 0.6780 0.8959
vt 0.6780 0.0002
vt 0.6351 0.8959
vt 0.6351 0.0002
vt 0.7693 0.9998
vt 0.7265 0.9998
vt 0.6962 0.9695
vt 0.6962 0.9266
vt 0.7265 0.8964
vt 0.7693 0.8964
vt 0.7996 0.9266
vt 0.7996 0.9695
vt 0.5923 0.8959
vt 0.5923 0.0002
vt 0.9351 0.0002
vt 0.9351 0.8959
vt 0.6957 0.9266
vt 0.6957 0.9695
vt 0.6654 0.9998
vt 0.6226 0.9998
vt 0.5923 0.9695
vt 0.5923 0.9266
vt 0.6226 0.8964
vt 0.6654 0.8964
vt 0.3661 0.2813
vt 0.3661 0.2813
vt 0.3661 0.2813
vt 0.3661 0.2813
vt 0.3661 0.2813
vt 0.3661 0.2813
vt 0.3661 0.2813
vt 0.3661 0.2813
vt 0.3661 0.2813
vt 0.3661 0.2813
vt 0.3661 0.2813
vt 0.3661 0.2813
vt 0.3661 0.2813
vt 0.3661 0.2813
vt 0.3661 0.2813
vt 0.3661 0.2813
vt 0.3661 0.2813
vt 0.3661 0.2813
vt 0.3661 0.2813
vt 0.3661 0.2813
vt 0.3661 0.2813
vt 0.3661 0.2813
vt 0.3661 0.2813
vt 0.3661 0.2813
vt 0.3661 0.2813
vt 0.3661 0.2813
vt 0.3661 0.2813
vt 0.3661 0.2813
vt 0.3661 0.2813
vt 0.3661 0.2813
vt 0.3661 0.2813
vt 0.3661 0.2813
vt 0.3661 0.2813
vt 0.3661 0.2813
vt 0.3661 0.2813
vt 0.3661 0.2813
vt 0.3661 0.2813
vt 0.3661 0.2813
vt 0.3661 0.2813
vt 0.3661 0.2813
vt 0.0002 0.4537
vt 0.2774 0.3070
vt 0.3078 0.3474
vt 0.2229 0.6353
vt 0.3514 0.3605
vt 0.4407 0.6018
vt 0.4020 0.3381
vt 0.5919 0.4425
vt 0.4138 0.2643
vt 0.5919 0.1604
vt 0.3576 0.2224
vt 0.3623 0.0002
vt 0.3111 0.2306
vt 0.1561 0.0327
vt 0.2826 0.2595
vt 0.0117 0.1756
vt 0.3345 0.2901
vt 0.3399 0.2994
vt 0.3486 0.3041
vt 0.3612 0.3021
vt 0.3669 0.2850
vt 0.3545 0.2739
vt 0.3436 0.2747
vt 0.3364 0.2801
vt 0.3493 0.2872
vt 0.3504 0.2895
vt 0.3521 0.2908
vt 0.3549 0.2910
vt 0.3569 0.2874
vt 0.3544 0.2844
vt 0.3518 0.2842
vt 0.3499 0.2850
vt 0.3548 0.2860
vt 0.3551 0.2866
vt 0.3553 0.2870
vt 0.3558 0.2872
vt 0.3564 0.2865
vt 0.3561 0.2857
vt 0.3555 0.2855
vt 0.3550 0.2855
vt 0.3582 0.2849
vt 0.3582 0.2851
vt 0.3581 0.2852
vt 0.3581 0.2854
vt 0.3583 0.2852
vt 0.3584 0.2850
vt 0.3583 0.2849
vt 0.3581 0.2848
vt 0.3610 0.2836
vt 0.3611 0.2838
vt 0.3608 0.2839
vt 0.3606 0.2841
vt 0.3606 0.2840
vt 0.3608 0.2839
vt 0.3609 0.2837
vt 0.3609 0.2835
vt 0.3642 0.2818
vt 0.3641 0.2826
vt 0.3635 0.2827
vt 0.3629 0.2829
vt 0.3628 0.2830
vt 0.3632 0.2828
vt 0.3636 0.2826
vt 0.3639 0.2821
vt 0.3705 0.2793
vt 0.3670 0.2802
vt 0.3654 0.2811
vt 0.3645 0.2818
vt 0.3644 0.2821
vt 0.3650 0.2822
vt 0.3660 0.2820
vt 0.3676 0.2813
vt 0.3671 0.2813
vt 0.3667 0.2813
vt 0.3660 0.2813
vt 0.3655 0.2815
vt 0.3654 0.2816
vt 0.3658 0.2814
vt 0.3662 0.2811
vt 0.3666 0.2809
vt 0.3664 0.2813
vt 0.3663 0.2814
vt 0.3661 0.2814
vt 0.3659 0.2814
vt 0.3658 0.2813
vt 0.3660 0.2813
vt 0.3662 0.2812
vt 0.3664 0.2812
vt 0.3662 0.2813
vt 0.3661 0.2814
vt 0.3661 0.2814
vt 0.3660 0.2813
vt 0.3660 0.2813
vt 0.3661 0.2813
vt 0.3661 0.2813
vt 0.3662 0.2813
vn -0.5773 -0.5773 0.5773
vn -0.5773 0.5773 0.5773
vn -0.5773 0.5773 -0.5773
vn -0.5773 -0.5773 -0.5773
vn 0.5773 0.5773 -0.5773
vn 0.5773 -0.5773 -0.5773
vn 0.5773 0.5773 0.5773
vn 0.5773 -0.5773 0.5773
vn -0.6302 0.0000 -0.7764
vn 0.6302 0.0000 -0.7764
vn 0.6302 -0.5490 -0.5490
vn -0.6302 -0.5490 -0.5490
vn 0.6302 -0.7764 0.0000
vn -0.6302 -0.7764 0.0000
vn 0.6302 -0.5490 0.5490
vn -0.6302 -0.5490 0.5490
vn 0.6302 0.0000 0.7764
vn -0.6302 0.0000 0.7764
vn 0.6302 0.5490 0.5490
vn -0.6302 0.5490 0.5490
vn 0.6302 0.7764 0.0000
vn -0.6302 0.7764 0.0000
vn 0.6302 0.5490 -0.5490
vn -0.6302 0.5490 -0.5490
vn 1.0000 0.0000 0.0000
vn 0.9239 0.3827 0.0000
vn 0.7437 0.3080 0.5933
vn 0.8050 0.0000 0.5933
vn 0.0583 0.0241 0.9980
vn 0.0631 0.0000 0.9980
vn -0.7115 -0.2947 0.6379
vn -0.7701 0.0000 0.6379
vn -0.9239 -0.3827 0.0000
vn -1.0000 0.0000 0.0000
vn -0.7115 -0.2947 -0.6379
vn -0.7701 0.0000 -0.6379
vn 0.0583 0.0241 -0.9980
vn 0.0631 0.0000 -0.9980
vn 0.7437 0.3080 -0.5933
vn 0.8050 0.0000 -0.5933
vn 0.7071 0.7071 0.0000
vn 0.5692 0.5692 0.5933
vn 0.0446 0.0446 0.9980
vn -0.5445 -0.5445 0.6379
vn -0.7071 -0.7071 0.0000
vn -0.5445 -0.5445 -0.6379
vn 0.0446 0.0446 -0.9980
vn 0.5692 0.5692 -0.5933
vn 0.3827 0.9239 0.0000
vn 0.3080 0.7437 0.5933
vn 0.0241 0.0583 0.9980
vn -0.2947 -0.7115 0.6379
vn -0.3827 -0.9239 0.0000
vn -0.2947 -0.7115 -0.6379
vn 0.0241 0.0583 -0.9980
vn 0.3080 0.7437 -0.5933
vn 0.0000 1.0000 0.0000
vn 0.0000 0.8050 0.5933
vn 0.0000 0.0631 0.9980
vn 0.0000 -0.7701 0.6379
vn 0.0000 -1.0000 0.0000
vn 0.0000 -0.7701 -0.6379
vn 0.0000 0.0631 -0.9980
vn 0.0000 0.8050 -0.5933
vn -0.3827 0.9239 0.0000
vn -0.3080 0.7437 0.5933
vn -0.0241 0.0583 0.9980
vn 0.2947 -0.7115 0.6379
vn 0.3827 -0.9239 0.0000
vn 0.2947 -0.7115 -0.6379
vn -0.0241 0.0583 -0.9980
vn -0.3080 0.7437 -0.5933
vn -0.7071 0.7071 0.0000
vn -0.5692 0.5692 0.5933
vn -0.0446 0.0446 0.9980
vn 0.5445 -0.5445 0.6379
vn 0.7071 -0.7071 0.0000
vn 0.5445 -0.5445 -0.6379
vn -0.0446 0.0446 -0.9980
vn -0.5692 0.5692 -0.5933
vn -0.9239 0.3827 0.0000
vn -0.7437 0.3080 0.5933
vn -0.0583 0.0241 0.9980
vn 0.7115 -0.2947 0.6379
vn 0.9239 -0.3827 0.0000
vn 0.7115 -0.2947 -0.6379
vn -0.0583 0.0241 -0.9980
vn -0.7437 0.3080 -0.5933
vn -0.8050 0.0000 0.5933
vn -0.0631 0.0000 0.9980
vn 0.7701 0.0000 0.6379
vn 0.7701 0.0000 -0.6379
vn -0.0631 0.0000 -0.9980
vn -0.8050 0.0000 -0.5933
vn -0.7437 -0.3080 0.5933
vn -0.0583 -0.0241 0.9980
vn 0.7115 0.2947 0.6379
vn 0.7115 0.2947 -0.6379
vn -0.0583 -0.0241 -0.9980
vn -0.7437 -0.3080 -0.5933
vn -0.5692 -0.5692 0.5933
vn -0.0446 -0.0446 0.9980
vn 0.5445 0.5445 0.6379
vn 0.5445 0.5445 -0.6379
vn -0.0446 -0.0446 -0.9980
vn -0.5692 -0.5692 -0.5933
vn -0.3080 -0.7437 0.5933
vn -0.0241 -0.0583 0.9980
vn 0.2947 0.7115 0.6379
vn 0.2947 0.7115 -0.6379
vn -0.0241 -0.0583 -0.9980
vn -0.3080 -0.7437 -0.5933
vn 0.0000 -0.8050 0.5933
vn 0.0000 -0.0631 0.9980
vn 0.0000 0.7701 0.6379
vn 0.0000 0.7701 -0.6379
vn 0.0000 -0.0631 -0.9980
vn 0.0000 -0.8050 -0.5933
vn 0.3080 -0.7437 0.5933
vn 0.0241 -0.0583 0.9980
vn -0.2947 0.7115 0.6379
vn -0.2947 0.7115 -0.6379
vn 0.0241 -0.0583 -0.9980
vn 0.3080 -0.7437 -0.5933
vn 0.5692 -0.5692 0.5933
vn 0.0446 -0.0446 0.9980
vn -0.5445 0.5445 0.6379
vn -0.5445 0.5445 -0.6379
vn 0.0446 -0.0446 -0.9980
vn 0.5692 -0.5692 -0.5933
vn 0.7437 -0.3080 0.5933
vn 0.0583 -0.0241 0.9980
vn -0.7115 0.2947 0.6379
vn -0.7115 0.2947 -0.6379
vn 0.0583 -0.0241 -0.9980
vn 0.7437 -0.3080 -0.5933
usemtl None
s 1
f 1/1/1 2/2/2 4/3/3 3/4/4
f 3/4/4 4/3/3 8/5/5 7/6/6
f 7/7/6 8/5/5 6/8/7 5/9/8
f 5/10/8 6/8/7 2/2/2 1/11/1
f 3/12/4 7/13/6 5/14/8 1/15/1
f 8/5/5 4/3/3 2/2/2 6/8/7
f 9/16/1 10/17/2 12/18/3 11/19/4
f 11/19/4 12/18/3 16/20/5 15/21/6
f 15/22/6 16/20/5 14/23/7 13/24/8
f 13/25/8 14/23/7 10/17/2 9/26/1
f 11/27/4 15/28/6 13/29/8 9/30/1
f 16/20/5 12/18/3 10/17/2 14/23/7
f 17/31/9 18/32/10 20/33/11 19/34/12
f 19/34/12 20/33/11 22/35/13 21/36/14
f 21/36/14 22/35/13 24/37/15 23/38/16
f 23/38/16 24/37/15 26/39/17 25/40/18
f 25/40/18 26/39/17 28/41/19 27/42/20
f 27/42/20 28/41/19 30/43/21 29/44/22
f 20/45/11 18/46/10 32/47/23 30/48/21 28/49/19 26/50/17 24/51/15 22/52/13
f 29/44/22 30/43/21 32/53/23 31/54/24
f 31/55/24 32/56/23 18/32/10 17/31/9
f 17/57/9 19/58/12 21/59/14 23/60/16 25/61/18 27/62/20 29/63/22 31/64/24
f 33/65/25 41/66/26 42/67/27 34/68/28
f 34/68/28 42/67/27 43/69/29 35/70/30
f 35/70/30 43/69/29 44/71/31 36/72/32
f 36/72/32 44/71/31 45/73/33 37/74/34
f 37/74/34 45/73/33 46/75/35 38/76/36
f 38/76/36 46/75/35 47/77/37 39/78/38
f 39/78/38 47/77/37 48/79/39 40/80/40
f 33/65/25 40/80/40 48/79/39 41/66/26
f 41/66/26 49/81/41 50/82/42 42/67/27
f 42/67/27 50/82/42 51/83/43 43/69/29
f 43/69/29 51/83/43 52/84/44 44/71/31
f 44/71/31 52/84/44 53/85/45 45/73/33
f 45/73/33 53/85/45 54/86/46 46/75/35
f 46/75/35 54/86/46 55/87/47 47/77/37
f 47/77/37 55/87/47 56/88/48 48/79/39
f 48/79/39 56/88/48 49/81/41 41/66/26
f 49/81/41 57/89/49 58/90/50 50/82/42
f 50/82/42 58/90/50 59/91/51 51/83/43
f 51/83/43 59/91/51 60/92/52 52/84/44
f 52/84/44 60/92/52 61/93/53 53/85/45
f 53/85/45 61/93/53 62/94/54 54/86/46
f 54/86/46 62/94/54 63/95/55 55/87/47
f 55/87/47 63/95/55 64/96/56 56/88/48
f 56/88/48 64/96/56 57/89/49 49/81/41
f 57/89/49 65/97/57 66/98/58 58/90/50
f 58/90/50 66/98/58 67/99/59 59/91/51
f 59/91/51 67/99/59 68/100/60 60/92/52
f 60/92/52 68/100/60 69/101/61 61/93/53
f 61/93/53 69/101/61 70/102/62 62/94/54
f 62/94/54 70/102/62 71/103/63 63/95/55
f 63/95/55 71/103/63 72/104/64 64/96/56
f 64/96/56 72/104/64 65/97/57 57/89/49
f 65/105/57 73/106/65 74/107/66 66/108/58
f 66/108/58 74/107/66 75/109/67 67/110/59
f 67/110/59 75/109/67 76/111/68 68/112/60
f 68/112/60 76/111/68 77/113/69 69/114/61
f 69/114/61 77/113/69 78/115/70 70/116/62
f 70/116/62 78/115/70 79/117/71 71/118/63
f 71/118/63 79/117/71 80/119/72 72/120/64
f 72/120/64 80/119/72 73/106/65 65/105/57
f 73/106/65 81/121/73 82/122/74 74/107/66
f 74/107/66 82/122/74 83/123/75 75/109/67
f 75/109/67 83/123/75 84/124/76 76/111/68
f 76/111/68 84/124/76 85/125/77 77/113/69
f 77/113/69 85/125/77 86/126/78 78/115/70
f 78/115/70 86/126/78 87/127/79 79/117/71
f 79/117/71 87/127/79 88/128/80 80/119/72
f 80/119/72 88/128/80 81/121/73 73/106/65
f 81/121/73 89/129/81 90/130/82 82/122/74
f 82/122/74 90/130/82 91/131/83 83/123/75
f 83/123/75 91/131/83 92/132/84 84/124/76
f 84/124/76 92/132/84 93/133/85 85/125/77
f 85/125/77 93/133/85 94/134/86 86/126/78
f 86/126/78 94/134/86 95/135/87 87/127/79
f 87/127/79 95/135/87 96/136/88 88/128/80
f 88/128/80 96/136/88 89/129/81 81/121/73
f 89/129/81 97/137/34 98/138/89 90/130/82
f 90/130/82 98/138/89 99/139/90 91/131/83
f 91/131/83 99/139/90 100/140/91 92/132/84
f 92/132/84 100/140/91 101/141/25 93/133/85
f 93/133/85 101/141/25 102/142/92 94/134/86
f 94/134/86 102/142/92 103/143/93 95/135/87
f 95/135/87 103/143/93 104/144/94 96/136/88
f 96/136/88 104/144/94 97/137/34 89/129/81
f 97/137/34 105/145/33 106/146/95 98/138/89
f 98/138/89 106/146/95 107/147/96 99/139/90
f 99/139/90 107/147/96 108/148/97 100/140/91
f 100/140/91 108/148/97 109/149/26 101/141/25
f 101/141/25 109/149/26 110/150/98 102/142/92
f 102/142/92 110/150/98 111/151/99 103/143/93
f 103/143/93 111/151/99 112/152/100 104/144/94
f 104/144/94 112/152/100 105/145/33 97/137/34
f 105/145/33 113/153/45 114/154/101 106/146/95
f 106/146/95 114/154/101 115/155/102 107/147/96
f 107/147/96 115/155/102 116/156/103 108/148/97
f 108/148/97 116/156/103 117/157/41 109/149/26
f 109/149/26 117/157/41 118/158/104 110/150/98
f 110/150/98 118/158/104 119/159/105 111/151/99
f 111/151/99 119/159/105 120/160/106 112/152/100
f 112/152/100 120/160/106 113/153/45 105/145/33
f 113/153/45 121/161/53 122/162/107 114/154/101
f 114/154/101 122/162/107 123/163/108 115/155/102
f 115/155/102 123/163/108 124/164/109 116/156/103
f 116/156/103 124/164/109 125/165/49 117/157/41
f 117/157/41 125/165/49 126/166/110 118/158/104
f 118/158/104 126/166/110 127/167/111 119/159/105
f 119/159/105 127/167/111 128/168/112 120/160/106
f 120/160/106 128/168/112 121/161/53 113/153/45
f 121/161/53 129/169/61 130/170/113 122/162/107
f 122/162/107 130/170/113 131/171/114 123/163/108
f 123/163/108 131/171/114 132/172/115 124/164/109
f 124/164/109 132/172/115 133/173/57 125/165/49
f 125/165/49 133/173/57 134/174/116 126/166/110
f 126/166/110 134/174/116 135/175/117 127/167/111
f 127/167/111 135/175/117 136/176/118 128/168/112
f 128/168/112 136/176/118 129/169/61 121/161/53
f 129/169/61 137/177/69 138/178/119 130/170/113
f 130/170/113 138/178/119 139/179/120 131/171/114
f 131/171/114 139/179/120 140/180/121 132/172/115
f 132/172/115 140/180/121 141/181/65 133/173/57
f 133/173/57 141/181/65 142/182/122 134/174/116
f 134/174/116 142/182/122 143/183/123 135/175/117
f 135/175/117 143/183/123 144/184/124 136/176/118
f 136/176/118 144/184/124 137/177/69 129/169/61
f 137/177/69 145/185/77 146/186/125 138/178/119
f 138/178/119 146/186/125 147/187/126 139/179/120
f 139/179/120 147/187/126 148/188/127 140/180/121
f 140/180/121 148/188/127 149/189/73 141/181/65
f 141/181/65 149/189/73 150/190/128 142/182/122
f 142/182/122 150/190/128 151/191/129 143/183/123
f 143/183/123 151/191/129 152/192/130 144/184/124
f 144/184/124 152/192/130 145/185/77 137/177/69
f 145/185/77 153/193/85 154/194/131 146/186/125
f 146/186/125 154/194/131 155/195/132 147/187/126
f 147/187/126 155/195/132 156/196/133 148/188/127
f 148/188/127 156/196/133 157/197/81 149/189/73
f 149/189/73 157/197/81 158/198/134 150/190/128
f 150/190/128 158/198/134 159/199/135 151/191/129
f 151/191/129 159/199/135 160/200/136 152/192/130
f 152/192/130 160/200/136 153/193/85 145/185/77
f 153/193/85 33/65/25 34/68/28 154/194/131
f 154/194/131 34/68/28 35/70/30 155/195/132
f 155/195/132 35/70/30 36/72/32 156/196/133
f 156/196/133 36/72/32 37/74/34 157/197/81
f 157/197/81 37/74/34 38/76/36 158/198/134
f 158/198/134 38/76/36 39/78/38 159/199/135
f 159/199/135 39/78/38 40/80/40 160/200/136
f 160/200/136 40/80/40 33/65/25 153/193/85
